digraph "Graphical Class Hierarchy"
{
 // INTERACTIVE_SVG=YES
  edge [fontname="Helvetica",fontsize="10",labelfontname="Helvetica",labelfontsize="10"];
  node [fontname="Helvetica",fontsize="10",shape=record];
  rankdir="LR";
  Node0 [label="AdvDataFormatter",height=0.2,width=0.4,color="black", fillcolor="white", style="filled",URL="$class_adv_data_formatter.html"];
}
